[{
        "type": "yoga_teacher",
        "title": "JacQuetta Furlow-Ellis",
        "category": "US>AL>Huntsville",
        "price": "$0.00 / hr, Based on your personal consultation",
        "description": "<p>J'Que is a goal-achiever. If you have a goal she will get you there. She believes in hard work and the ability to do almost anything. Whether it is an upcoming event or just a healthier lifestyle she is the trainer for you. She has helped many people lose or gain weight through her programs and focuses on helping clients develop total lifestyle transformation. J'Que stresses the importance of overall health to include fitness, wellness, and good nutrition.</p><p>J'Que's passion for fitness comes from over a decade of experience as an athlete and fitness professional. Originally trained as a group exercise instructor at the University of Alabama, J 'Que enjoys teaching a wide variety of classes, has successfully trained as a fitness competitor and is the creator of a specialty cycling class called CYCLONE.</p>",
        "main_image": "https://cdn4.inspire360.com/files/image-sizer/d01cade464c0067167b3315287191590-card-tall.jpg",
        "other_images": [],
        "address": "US, Huntsville, AL 35816",
        "phone": "",
        "tags": "Athletic Trainer or Coach, Club or Studio Owner, Fitness Instructor, Massage Therapist, Personal Trainer, Pilates Instructor, Program Director or Manager, Sports Conditioning Pro, Wellness/Lifestyle Coach, Yoga Instructor",
        "payment_methods": "Cash, Cashier's Check, Credit Cards",
        "mail": "",
        "website": "http://www.jquenow.com",
        "work_hours": "",
        "specifications": {
            "tab_1": {
                "tab_name": "Additional Information",
                "tab_content": {
                    "degrees": "BS, Kinesiology, University of AlabamaBS, Biology, University of AlabamaMaster's Degree, Exercise Science, Samford University",
                    "liability insurance": "Fitness & Wellness Insurance Agency",
                    "years experience": "16-20",
                    "languages spoken": "English",
                    "gender": "Female"
                }
            }
        }
    },
    {
        "type": "yoga_teacher",
        "title": "Rebecca Swan",
        "category": "US>NJ>West Windsor",
        "price": "$0.00 / hr, Rates vary depending on package type and travel time.",
        "description": "<p>Rebecca is a fitness &amp; performance coach, a functional movement and corrective exercise specialist, and healthy food/lifestyle blogger. She has been been in the fitness/wellness industry for over 10 years and is dedicated to motivating others to achieve their fitness and wellness goals. From a wide variety of workouts and exercises to choose from, some of Rebecca’s favorite ways to train include, but are not limited to: functional and corrective exercise, strength training, and yoga. Additionally, Rebecca enjoys sharing endless possibilities for quick and easy, healthy recipes. “If you focus on results, you will never change. If you focus on change, you will get results.” -- Jack Dixon</p>",
        "main_image": "https://cdn3.inspire360.com/files/image-sizer/5c6004656e154c75a2afbe906f4e33b6-card-tall.jpg",
        "other_images": [],
        "address": "US, West Windsor, NJ 08550",
        "phone": "",
        "tags": "Exercise Physiologist, Fitness Instructor, Nutritionist or Dietitian, Personal Trainer, Wellness/Lifestyle Coach, Yoga Instructor",
        "payment_methods": "Cash, Credit Cards, Personal Checks",
        "mail": "",
        "website": "http://www.rebeccaeveswan.com",
        "work_hours": "",
        "specifications": {
            "tab_1": {
                "tab_name": "Additional Information",
                "tab_content": {
                    "degrees": "BS, Kinesiology, Temple university",
                    "certifications / trainings": "NASM - Certified Personal Trainer (CPT)",
                    "cpr certified": "American Red Cross",
                    "aed certified": "American Red Cross",
                    "liability insurance": "Fitness & Wellness Insurance Agency",
                    "years experience": "11-15",
                    "languages spoken": "English",
                    "gender": "Female"
                }
            }
        }
    },
    {
        "type": "yoga_teacher",
        "title": "Erika Hermsen",
        "category": "US>FL>Tampa",
        "price": "$0.00 / hr, www.amerikanmade.org",
        "description": "<p>I graduated from the University of Iowa in 2010 with a degree in Health Science/Health Coaching. I am an A.C.E. Certified Personal Trainer and have been working with clients to help them achieve their goals since 2010. Along with being a Certified Personal Trainer, I am also a Certified Run-Fit Specialist, a Yoga Alliance RYT-200 Hour Certified Yoga Teacher, a Certified TRX Instructor, and Schwinn Certified. Running, fitness, and health are my passions and I strive to inspire others to chase down their dreams. I specialize in personal training, strength coaching, run coaching, and yoga. Staying healthy and building strength are critical to achieving any goal, whether it's conquering a new race distance or setting a personal best. By offering the combination of Strength Coaching, Run Coaching, and Yoga, participants can train smarter, avoid injury, and achieve more. My reason for starting this business is to offer people something they can't get in any other program...an all-encompassing, comprehensive approach to training your body. With Strength Coaching, Run Coaching, and Yoga, you will train smarter, maximize your performance, and perform better. Our programs offer the benefits of measurements, gait analysis, form evaluation, drills, strength exercises, core strengthening, and stretching. My goal is to build a family and offer an experience, rather than just sell workout plans. </p>",
        "main_image": "https://cdn4.inspire360.com/files/image-sizer/22956252bfe246f5163b5d3aaf791c3b-card-tall.jpg",
        "other_images": [],
        "address": "US, Tampa, FL 33606",
        "phone": "",
        "tags": "Athletic Trainer or Coach, Fitness Instructor, Personal Trainer, Program Director or Manager, Sports Conditioning Pro, Wellness/Lifestyle Coach, Yoga Instructor",
        "payment_methods": "Cash, Credit Cards, Personal Checks",
        "mail": "",
        "website": "http://www.amerikanmade.org",
        "work_hours": "",
        "specifications": {
            "tab_1": {
                "tab_name": "Additional Information",
                "tab_content": {
                    "degrees": "BA, Interdepartmental Studies-Health Coach Emphasis, University of Iowa",
                    "certifications / trainings": "TRX - TRX Suspension Training Course;ACE - Certified Personal Trainer;ACE - REVO2LUTION RUNNING COACH",
                    "cpr certified": "American Red Cross Expires: Jul 02, 2018 American Safety and Health Institute Expires: Jun 02, 2016 American Safety and Health Institute (YMCA) Expires: Jun 06, 2016",
                    "aed certified": "American Red Cross Expires: Jul 02, 2018 American Safety and Health Institute Expires: Jun 02, 2016 American Heart Association Expires: Dec 01, 2015",
                    "liability insurance": "Fitness & Wellness Insurance Agency",
                    "book online": "https://clients.mindbodyonline.com/classic/admhome?studioid=185672",
                    "years experience": "7-8",
                    "languages spoken": "English",
                    "gender": "Female"
                }
            }
        }
    },
    {
        "type": "yoga_teacher",
        "title": "Debra Stefan",
        "category": "US>NV>Henderson",
        "price": "$80.00 / hr",
        "description": "<p>My early beginning in yoga ignited a passion for teaching wellness that evolved over 40 years. I have served at member facilities, universities, private client homes and my own studio. Since 2008, I offer services from my own home. Inspired by The Biggest Loser, my door is open to live-in and day camp clients. Seeking all forms of fitness, weight loss and wellness, clients stay weeks to months. Range is from six-pack seekers to extremely obese and up to 80 years old. From across the nation and the globe, live-in clients travel to sunny Nevada. They all have one common goal to live in fitness while pursuing weight loss. Two international TV shows have featured my unique outdoor workouts. The concept is simple. Eat whole foods in balanced proportion and move frequently. Live the fitness lifestyle year round. Debra Stefan Fitness residence is not open to the public. </p>",
        "main_image": "https://cdn.inspire360.com/files/image-sizer/876ba3328adf1e71d424192699e6f4f3-card-tall.jpg",
        "other_images": [],
        "address": "US, Henderson, NV 89011",
        "phone": "",
        "tags": "Fitness Instructor, Personal Trainer, Sports Conditioning Pro, Wellness/Lifestyle Coach, Yoga Instructor",
        "payment_methods": "Cash, Cashier's Check, Credit Cards, Personal Checks",
        "mail": "",
        "website": "http://www.debrastefan.com",
        "work_hours": "",
        "specifications": {
            "tab_1": {
                "tab_name": "Additional Information",
                "tab_content": {
                    "certifications / trainings": "ISSA - Personal Trainer Certification;ISSA - Youth Fitness Certification;LAB - League Cycling Instructor;Yoga Alliance - E-RYT 500",
                    "cpr certified": "Health Saver Expires: Feb 23, 2021 Heartsaver CPR/AED Expires: Aug 05, 2018",
                    "aed certified": "Health Saver Expires: Feb 23, 2021",
                    "liability insurance": "Fitness & Wellness Insurance Agency",
                    "years experience": "16-20",
                    "languages spoken": "English",
                    "gender": "Female"
                }
            }
        }
    },
    {
        "type": "yoga_teacher",
        "title": "Connie Aronson",
        "category": "US>ID>Ketchum",
        "price": "$0.00 / hr, You can choose any amount of sessions you wish. Partner, small group, online and home programs available also.",
        "description": "<p> Connie has been coaching and inspiring people to improve their fitness for the past 3 decades. An American College of Sports Medicine Exercise Physiologist, her passion is to help you become stronger for activities you love, or build superhero muscle. Her job is to make sure that your time training with her is effective and fun, utilizing cutting- edge programming. Connie’s expertise is low-back injury prevention, core strength, and creating the most effective personalized workout for you. </p><p> A former junior ski racer, she has a huge passion for skiing, and also loves to run, hike, bike and rock climb, enjoying traveling to the cliffs of the Greek Islands, Sardinia, Italy, Spain and Thailand. </p><p> In 2004 she was struck with spondylolisthesis, a very painful displacement of the spinal column.After undergoing surgery to fix her back, she focused on becoming a back pain specialist. This is the core of Connie's expertise~ strengthening and protecting the back. She has also studied yoga with world renowned yoga teachers, so if you train with her, you will surely do some yoga. </p><p> Here is a list of Connie's credentials: • American College of Sports Medicine • American Council on Exercise (gold level) • Cooper Institute for Aerobics Research • Active Isolated Strengthening Therapist (a method of fascia release used to facilitate stretching) • Connie is an International Dance Exercise Association Elite Level Personal Trainer ( the highest level of achievement in the personal fitness training industry) || TRX Suspension training coach. || 10 +years author of a popular monthly health and fitness column for the Idaho Mountain Express || Voted one of the top fitness trainers in the Sun Valley area || Yoga training with Judith Lasater, Seane Corn, and Erich Schiffmann || Professional member National Strength &amp; Conditioning Association|| YMCA Group Exercise Instructor</p>",
        "main_image": "https://cdn3.inspire360.com/files/image-sizer/b7b844c34ae06b6a997c8dab05ec27fb-card-tall.jpg",
        "other_images": [],
        "address": "US, Ketchum, ID 83340",
        "phone": "",
        "tags": "Fitness Instructor, Personal Trainer, Yoga Instructor",
        "payment_methods": "Personal Checks",
        "mail": "",
        "website": "http://www.conniearonson.com",
        "work_hours": "",
        "specifications": {
            "tab_1": {
                "tab_name": "Additional Information",
                "tab_content": {
                    "degrees": "BS, Advance Personal Training and Exercise Science, American College of Sports Medicine",
                    "certifications / trainings": "ACE - Certified Personal Trainer;IDEA - Nutrition Essentials Certificate;TRX - TRX® Group Suspension Training® Course;TRX - TRX Group Suspension Training Course;ACSM - ACSM Certified Exercise Physiologist;YMCA - Group Exercise Instructor",
                    "cpr certified": "American Heart Association Expires: Sep 01, 2018 American Red Cross Expires: Sep 01, 2018 1st Response Training CPR & First Aid Co. A-B-CPR and First Aid AED Expires: Jul 10, 2020",
                    "aed certified": "American Heart Association Expires: Sep 01, 2018 American Red Cross Expires: Sep 01, 2018 1st Response Training",
                    "liability insurance": "Philadelphia Indemnity Insurance Company",
                    "book online": "http://",
                    "years experience": "31+",
                    "languages spoken": "English",
                    "gender": "Female"
                }
            }
        }
    },
    {
        "type": "yoga_teacher",
        "title": "Tifany Lee",
        "category": "US>GA>Athens",
        "price": null,
        "description": "",
        "main_image": "https://cdn.inspire360.com/files/image-sizer/4cbdc6efe75f7c3dead172ad8102c82f-card-tall.jpg",
        "other_images": [],
        "address": "US, Athens, GA 30605",
        "phone": "",
        "tags": "Yoga Instructor",
        "payment_methods": null,
        "mail": "",
        "website": null,
        "work_hours": "",
        "specifications": {
            "tab_1": {
                "tab_name": "Additional Information",
                "tab_content": {
                    "degrees": "Master's Degree, MFA Fine Arts, University of Georgia",
                    "cpr certified": "American Heart Association",
                    "aed certified": "American Heart Association"
                }
            }
        }
    },
    {
        "type": "yoga_teacher",
        "title": "DM Salsberg",
        "category": "US>NY>Brooklyn",
        "price": "$100.00 / hr",
        "description": "",
        "main_image": "https://cdn6.inspire360.com/files/image-sizer/a0470ad03f920540c3ecf523eab195cb-card-tall.jpg",
        "other_images": [],
        "address": "US, Brooklyn, NY 11222",
        "phone": "",
        "tags": "Yoga Instructor",
        "payment_methods": "",
        "mail": "",
        "website": "http://www.dmsalsberg.com",
        "work_hours": "",
        "specifications": {
            "tab_1": {
                "tab_name": "Additional Information",
                "tab_content": {
                    "degrees": "BA, Theater Arts, UCSC",
                    "years experience": "9-10",
                    "languages spoken": "English",
                    "gender": "Female"
                }
            }
        }
    },
    {
        "type": "yoga_teacher",
        "title": "Odeta Stuikys Rose",
        "category": "US>IL>Bloomington",
        "price": "$20.00 / hr",
        "description": "",
        "main_image": "https://cdn.inspire360.com/files/image-sizer/bcb58d69e0548a92c110b6c84b26c506-card-tall.jpg",
        "other_images": [],
        "address": "US, Bloomington, IL 61701",
        "phone": "",
        "tags": "Fitness Instructor, Personal Trainer, Yoga Instructor",
        "payment_methods": "Cash, Credit Cards",
        "mail": "",
        "website": "https://www.selfgrowth.com/articles/user/2871141",
        "work_hours": "",
        "specifications": {
            "tab_1": {
                "tab_name": "Additional Information",
                "tab_content": {
                    "degrees": "Bachelor's Degree, Law, Sydney University",
                    "years experience": "9-10",
                    "languages spoken": "English",
                    "gender": "Female"
                }
            }
        }
    },
    {
        "type": "yoga_teacher",
        "title": "Jill Ackiron-Moses",
        "category": "US>NY>Astoria",
        "price": "$0.00 / hr, Please contact me regarding in home personal training and or yoga and fitness classes, fundraisers, corporate events, library classes.",
        "description": "<p>Yoga instructor, Thai massage practitioner, Health Coach and Personal Trainer </p><p>Age, health issues, size or history... today is a new day. <br>Today is your day.<br> My approach to fitness is that of a facilitator.<br>It is my privilege to work with people who choose to move forward in establishing a healthier, happier and stronger self. <br>I create functional and effective fitness programs that are relevant and specific to the lifestyles of each of my clients.<br> I am fortunate to work with a wide variety of people, ranging in age from 15 to 92.<br> It is my belief that everyone deserves to feel strong and proud of the bodies they inhabit, at this moment in time.<br> I start where my client is NOW and we work together as a team to determine goals and an action plan to achieve their long term success for a healthier tomorrow.</p>",
        "main_image": "https://cdn6.inspire360.com/files/image-sizer/20fd2363ad245d11407379eb6a211e8c-card-tall.jpeg",
        "other_images": [],
        "address": "US, Astoria, NY 11106",
        "phone": "",
        "tags": "Fitness Instructor, Massage Therapist, Other, Personal Trainer, Wellness/Lifestyle Coach, Yoga Instructor",
        "payment_methods": "Cash, Credit Cards, Personal Checks",
        "mail": "",
        "website": "http://www.ideafit.com/profile/jill-ackiron-moses",
        "work_hours": "",
        "specifications": {
            "tab_1": {
                "tab_name": "Additional Information",
                "tab_content": {
                    "yoga styles": "Gentle Yoga, Hatha, Ishta, Restorative, Vinyasa Flow, Yin Yoga, Yoga for Children, Yoga for Teens",
                    "yoga specialities": "Chakras, Meditation, Private / Individual, Seniors, Therapeutic",
                    "degrees": "Master's Degree, Masters of Education, Hofstra University",
                    "certifications / trainings": "ACE - Certified Health Coach;POUND - POUND Pro Training Certification;TRX - TRX® Group Suspension Training® Course;TRX - TRX® Suspension Training® Course-Sports Medicine Course;TRX - TRX Suspension Training Course;TRX - TRX® Suspension Training® Course;TRX - TRX Group Suspension Training Course;TRX - TRX Sports Medicine Suspension Training Course;YogaFit Training Systems Worldwide, Inc. - Level One: Foundations;Arthritis Foundation - Arthritis Exercise Program;Hoop - Level 1 Teacher Training Program",
                    "cpr certified": "American Heart Association Expires: Sep 20, 2020",
                    "aed certified": "American Heart Association Expires: Sep 20, 2020",
                    "liability insurance": "Lockton",
                    "years experience": "16-20",
                    "languages spoken": "English",
                    "gender": "Female"
                }
            }
        }
    },
    {
        "type": "yoga_teacher",
        "title": "Knight",
        "category": "US>GA>Savannah",
        "price": "$65.00 / hr, packages available at the studio",
        "description": "",
        "main_image": "https://cdn2.inspire360.com/files/image-sizer/4046a65c75cb22d6aabde164dd84071b-card-tall.jpg",
        "other_images": [],
        "address": "US, Savannah, GA 31410",
        "phone": "",
        "tags": "Athletic Trainer or Coach, Fitness Instructor, Personal Trainer, Sports Conditioning Pro, Yoga Instructor",
        "payment_methods": "Cash, Cashier's Check, Credit Cards, Personal Checks",
        "mail": "",
        "website": null,
        "work_hours": "",
        "specifications": {
            "tab_1": {
                "tab_name": "Additional Information",
                "tab_content": {
                    "degrees": "Bachelor's Degree, Physical Education, Cal Poly San Luis ObispoMaster's Degree, Exercise Science, California Univeristy of PABachelor's Degree, Physical Education, Cal Poly San Luis ObispoMaster's Degree, Exercise Science, California Univeristy of PA",
                    "certifications / trainings": "AFAA - Primary Group Exercise Certification;AFAA - Kickboxing Certification;AFAA - Military Fitness Specialist Certification;NASM - Youth Exercise Specialist (YES);NASM - Performance Enhancement Specialist (PES);NASM - Fitness Nutrition Specialist;NASM - Corrective Exercise Specialist (CES);NASM - Golf Fitness Specialist (GFS);TRX - TRX® Suspension Training® Course;TRX - TRX Suspension Training Course;YogaFit Training Systems Worldwide, Inc. - Level One: Foundations;Zumba® - Zumba® Basic 2;Zumba® - Zumba® Basic 1;Zumba® - Zumbatomic®;NASM - Certified Personal Trainer (CPT)",
                    "cpr certified": "Heartsaver First Aid, CPR, AED Expires: Oct 27, 2018",
                    "aed certified": "American Health and Safety Institute",
                    "liability insurance": "Fitness & Wellness Insurance Agency",
                    "years experience": "11-15",
                    "languages spoken": "English",
                    "gender": "Female"
                }
            }
        }
    },
    {
        "type": "yoga_teacher",
        "title": "Heather Simpson",
        "category": "US>NJ>Mt Laurel",
        "price": "$65.00 / hr, Rates vary based on location. Sessions are 30-45 minutes.",
        "description": "<p>It is my goal to offer a safe environment and a FUN atmosphere for exercise!</p>",
        "main_image": "https://cdn4.inspire360.com/files/image-sizer/d273ac788a0e6e95d67c16e406094d3c-card-tall.jpg",
        "other_images": [],
        "address": "US, Mt Laurel, NJ 08054",
        "phone": "",
        "tags": "Fitness Instructor, Personal Trainer, Yoga Instructor",
        "payment_methods": "Cash, Personal Checks",
        "mail": "",
        "website": null,
        "work_hours": "",
        "specifications": {
            "tab_1": {
                "tab_name": "Additional Information",
                "tab_content": {
                    "degrees": "Bachelor's Degree, Health, Physical Education and Recreation, Coastal Carolina University",
                    "certifications / trainings": "ACE - Certified Personal Trainer;ACE - Certified Group Fitness Instructor;NSCA - Certified Personal Trainer;ACE - Fitness Nutrition Specialist Program - 2.5 CECs;ACE - Fitness Nutrition Specialist;Spinning® - Certified Spinning Instructor (STAR 2);Spinning® - Certified Spinning Instructor (STAR 1);TRX - TRX Suspension Training Course;YogaFit Training Systems Worldwide, Inc. - Level Two: Communication;YogaFit Training Systems Worldwide, Inc. - Level One: Foundations;AEA - AEA Fitness Professional Certification;RAB - Resist-A-Ball Instructor;AFAA - Primary Group Exercise Certification;AFAA - Personal Fitness Trainer Certification;Spinning® - Certified Spinning Instructor (STAR 3)",
                    "cpr certified": "Amerian Heart Association Expires: Mar 31, 2020",
                    "aed certified": "American Heart Association Expires: Mar 31, 2019",
                    "liability insurance": "Fitness & Wellness Insurance Agency",
                    "years experience": "26-30",
                    "languages spoken": "English",
                    "gender": "Female"
                }
            }
        }
    },
    {
        "type": "yoga_teacher",
        "title": "Ai Muir",
        "category": "US>TX>Richardson",
        "price": "$0.00 / hr",
        "description": "",
        "main_image": "https://cdn5.inspire360.com/files/image-sizer/2ee9b3dd61dc1d0f043c541c7270d884-card-tall.jpg",
        "other_images": [],
        "address": "US, Richardson, TX 75081",
        "phone": "",
        "tags": "Fitness Instructor, Pilates Instructor, Yoga Instructor",
        "payment_methods": "",
        "mail": "",
        "website": null,
        "work_hours": "",
        "specifications": {
            "tab_1": {
                "tab_name": "Additional Information",
                "tab_content": {
                    "certifications / trainings": "PB11 - All Star Presenter Camp;AFAA - Primary Group Exercise Certification;PB11 - Turbo Kick Instructor Training;PB11 - PiYo Instructor Training;PB11 - Hip Hop Hustle Instructor Training",
                    "cpr certified": "American Red Cross",
                    "languages spoken": "English, Japanese",
                    "gender": "Female"
                }
            }
        }
    },
    {
        "type": "yoga_teacher",
        "title": "Lara Foldvari",
        "category": "US>CT>Cheshire",
        "price": "$0.00 / hr",
        "description": "<p>Lara is currently not accepting new personal training clients and cannot respond to your inquiries through IDEAfit.</p><p>Lara has been dancing for more than 40 years. She began her training in classical ballet at The Boston Ballet, followed by The Connecticut Ballet, and The New Haven Ballet. In addition, Lara has been practicing Pilates and the Lotte Berk method for the past decade. Lara combined these disciplines into a trademarked class, YoLarates.<br>After realizing the need for a time efficient strength training class for seniors, Lara developed Boomers &amp; Beyond Body Camp, a 30-minute circuit training class for active mature adults.</p>",
        "main_image": "https://cdn4.inspire360.com/files/image-sizer/f9167296e6d61ff0010a73840161bae7-card-tall.jpg",
        "other_images": [],
        "address": "US, Cheshire, CT 06410",
        "phone": "",
        "tags": "Fitness Instructor, Nutritionist or Dietitian, Personal Trainer, Pilates Instructor, Wellness/Lifestyle Coach, Yoga Instructor",
        "payment_methods": "Cash, Cashier's Check, Credit Cards, Personal Checks",
        "mail": "",
        "website": "http://www.yolarates.com",
        "work_hours": "",
        "specifications": {
            "tab_1": {
                "tab_name": "Additional Information",
                "tab_content": {
                    "degrees": "AA, Business, Albertus Magnus College",
                    "certifications / trainings": "ACE - Certified Personal Trainer;ACE - Certified Group Fitness Instructor;AFAA - Golden Hearts Senior Fitness Training;AFAA - Practical Pilates;AFPA - Holistic Nutrition Consultant;IBBFA Barre Certification - Barre Level 3;IBBFA Barre Certification - Barre Level 2;IBBFA Barre Certification - Barre for Special Populations- Stretch & Tone;IBBFA Barre Certification - Prenatal Barre;IBBFA Barre Certification - Barre Level 1;NASM - Fitness Nutrition Specialist;NESTA - Lifestyle Weight Management LWM;NESTA - Sports Yoga Instructor (SY);Zumba® - Zumba® Basic 1;Zumba® - Zumba® Basic 2;Zumba® - Zumba® Gold;Zumba® - Zumba® Toning;Zumba® - Aqua Zumba;AEA - AEA Fitness Professional Certification;SilverSneakers - Foundations;Spencer Institute - Holistic Life Coach;AFAA - Primary Group Exercise Certification;ASFA® - Barre Fitness Instruction Certification;SFA / ASFA - Senior Personal Trainer",
                    "cpr certified": "AHA-Heartsaver First Aid CPR AED Expires: Dec 31, 2020",
                    "liability insurance": "K&K Insurance Group",
                    "years experience": "7-8",
                    "languages spoken": "English",
                    "gender": "Female"
                }
            }
        }
    },
    {
        "type": "yoga_teacher",
        "title": "Nancy Korf",
        "category": "US>OR>Portland",
        "price": "$25.00 / hr, Small-group rates $20-30, one on one $60-90. Payment methods vary by location.",
        "description": "<p>I have been honored to be a part of the fitness industry since 1991.<br>The top 2 reasons people take classes are (1) for fun (2) for results. My classes provide both.<br>Specialties in small-group training, personal training, and reformer pilates. ZES(tm) for Zumba Gold(r), teaching Zumba instructors how to teach inclusive classes. I love working with seniors! </p>",
        "main_image": "https://cdn3.inspire360.com/files/image-sizer/5aabe3dbe35fc6b16462594b09af4db8-card-tall.jpg",
        "other_images": [],
        "address": "US, Portland, OR 97229",
        "phone": "",
        "tags": "Fitness Instructor, Personal Trainer, Pilates Instructor, Wellness/Lifestyle Coach, Yoga Instructor",
        "payment_methods": "Cash, Credit Cards, Personal Checks",
        "mail": "",
        "website": "https://www.facebook.com/Aerobigirl",
        "work_hours": "",
        "specifications": {
            "tab_1": {
                "tab_name": "Additional Information",
                "tab_content": {
                    "degrees": "BS, Psychology, University of WashingtonMaster's Degree, MBA - Business, University of WashingtonMaster's Degree, Tax Accounting, University of washintgon",
                    "certifications / trainings": "ACE - Certified Personal Trainer;CrossCore - CrossCore® Rotational Bodyweight Training™ - Training and Education Course;MELT - MELT Instructor Level 2;MELT - MELT Instructor Level 1;MELT - MELT Hand and Foot Instructor;MELT - MELT NeuroStrength Level 1;Qignition - QiDANCE Trained;Qignition - QiFORZE Trained;TBMM - The BioMechanics Method - Corrective Exercise Specialist;TRX - TRX Suspension Training Course;TRX - TRX Sports Medicine Suspension Training Course;Zumba® - Zumbatomic®;Zumba® - Zumba® Basic 1;Zumba® - Aqua Zumba;Zumba® - Zumba® Toning;Zumba® - Zumba® Step;Zumba® - Zumba® Gold;Zumba® - Zumba® Basic 2;ViPR - ViPR™ Certified Trainer;AFAA - Primary Group Exercise Certification;Zumba® - STRONG by Zumba™;IM=X Pilates Studio - Basic: Pilates Xerciser 3-Day Certification",
                    "cpr certified": "American Safety and Health Institute Expires: Jul 25, 2020",
                    "aed certified": "American Safety and Health Institute Expires: Jul 25, 2020",
                    "liability insurance": "Fitness & Wellness Insurance Agency",
                    "years experience": "26-30",
                    "languages spoken": "English",
                    "gender": "Female"
                }
            }
        }
    },
    {
        "type": "yoga_teacher",
        "title": "Candice Pitts",
        "category": "US>CA>chino",
        "price": "$45.00 / hr",
        "description": "",
        "main_image": "",
        "other_images": [],
        "address": "US, chino, CA 91710",
        "phone": "",
        "tags": "Fitness Instructor, Pilates Instructor, Yoga Instructor",
        "payment_methods": "Cash, Cashier's Check, Credit Cards, Personal Checks",
        "mail": "",
        "website": null,
        "work_hours": "",
        "specifications": {
            "tab_1": {
                "tab_name": "Additional Information",
                "tab_content": {
                    "degrees": "BSc., Kinesiology, Cal Poly",
                    "liability insurance": "Lockton",
                    "years experience": "3-4",
                    "languages spoken": "English",
                    "gender": "Female"
                }
            }
        }
    },
    {
        "type": "yoga_teacher",
        "title": "Elizabeth Walker",
        "category": "US>MD>Berlin",
        "price": "",
        "description": "",
        "main_image": "",
        "other_images": [],
        "address": "US, Berlin, MD 21811",
        "phone": "",
        "tags": "Yoga Instructor",
        "payment_methods": "",
        "mail": "",
        "website": null,
        "work_hours": "",
        "specifications": {
            "tab_1": {
                "tab_name": "Additional Information",
                "tab_content": {
                    "gender": "Not Specified"
                }
            }
        }
    },
    {
        "type": "yoga_teacher",
        "title": "Shelli August",
        "category": "US>FL>Tamarac",
        "price": "$16.00 / hr",
        "description": "",
        "main_image": "",
        "other_images": [],
        "address": "US, Tamarac, FL 33319",
        "phone": "",
        "tags": "Club or Studio Owner, Yoga Instructor",
        "payment_methods": "Cash, Cashier's Check, Personal Checks",
        "mail": "",
        "website": "http://www.sabeenayoga.com",
        "work_hours": "",
        "specifications": {
            "tab_1": {
                "tab_name": "Additional Information",
                "tab_content": {
                    "years experience": "21-25",
                    "languages spoken": "English",
                    "gender": "Female"
                }
            }
        }
    },
    {
        "type": "yoga_teacher",
        "title": "Daniel Chandranayagam",
        "category": "US>>Bandar Kuala Lumpur 50300",
        "price": "$165.00 / hr, RM, not USD",
        "description": "<p>Daniel is an ACE certified personal trainer (T158691) and a Yoga Alliance certified yoga teacher (RYT 200). He is also Malaysia's first licensed Broga® Yoga instructor.</p><p>After being overweight in his childhood, Daniel has always been active since his 20s, going a step further by getting certified with ACE so that he can help others get fitter and healthier.</p><p>His fitness career began in personal training at Body By Design, whose clientele are mainly referred over by Global Doctors, Malaysia. Simultaneously, he was a boot camp coach at Rebel Boot Camp. Daniel only recently left Rebel, when he was ranked Senior Sarge and leading the Bandar Utama platoon.</p><p>Daniel now freelances in yoga, small group fitness and personal training). General fitness aside, Daniel's interest lies with special populations, having given talks and fitness trainings for those living with HIV. He also has given a mini talk and training on Parkinson’s and fitness, as well as have had clients with Fibromyalgia and diabetic-related neuropathy. He also teaches yoga to the visually challenged.<br></p>",
        "main_image": "https://cdn5.inspire360.com/files/image-sizer/d721d493fd527142ac19fd782f49e297-card-tall.jpg",
        "other_images": [],
        "address": "US, Bandar Kuala Lumpur 50300",
        "phone": "",
        "tags": "Personal Trainer, Yoga Instructor",
        "payment_methods": "Cash, Cashier's Check, Personal Checks",
        "mail": "",
        "website": "http://namasteadventures.wordpress.com/",
        "work_hours": "",
        "specifications": {
            "tab_1": {
                "tab_name": "Additional Information",
                "tab_content": {
                    "degrees": "Bachelor's Degree",
                    "certifications / trainings": "ACE - Mind Body Specialist;ACE - Certified Personal Trainer",
                    "cpr certified": "Emergency First Response Expires: Apr 26, 2019 Fitness Innovations Malaysia Expires: Apr 19, 2015 MALAYSIAN RED CRESCENT Expires: Apr 26, 2018 Fit Innovations Sdn Bhd, Malaysia",
                    "aed certified": "Emergency First Response Expires: Apr 26, 2019 Fitness Innovations Malaysia Expires: Apr 19, 2015 MALAYSIAN RED CRESCENT Expires: Apr 26, 2018",
                    "years experience": "5-6",
                    "languages spoken": "English",
                    "gender": "Male"
                }
            }
        }
    },
    {
        "type": "yoga_teacher",
        "title": "Andrea Claassen",
        "category": "US>MN>St. Louis Park",
        "price": "$100.00 / hr, Prices may differ depending on how many times you train a week- www.andreaclaassen.com for full price details",
        "description": "<p>I’m a former type A mom who had to get everything done, there were no days off. I felt like I always had to be “on” or people wouldn’t respect me. Every workout had to be intense and at least an hour to “count”. I ate great most of the time but on occasion had too much wine on a Friday night. I pushed myself to the limit because that’s how I thought I would get max results in all areas of life. </p><p>All of that lead to me feeling burnt out, never in the present moment and with no real results to show for it. So what changed? I discovered the magic of listening to what my body was telling me to do and trusting it.</p><p>I learned how to workout more effectively &amp; still get results in 30 minutes or less. I have built in time for stillness during my day to have some alone time which is especially needed now as a mom to a busy toddler.</p><p>My Education:</p><p>Sports &amp; Exercise Science &amp; Psychology -Double Major from Hamline University, St. Paul, MN- graduated 2007</p><p>ACE Certified Personal Trainer since 2007</p><p>ACE Pre/Post Natal Specialist since 2009</p><p>ACE Certified Group Exercise Instructor since 2013</p><p>200 hour Registered Yoga Teacher since 2016</p><p>Certified Ayurvedic health coach since 2018</p>",
        "main_image": "https://cdn5.inspire360.com/files/image-sizer/c131ac701a95d0420c0e00e10a0ab2bc-card-tall.jpg",
        "other_images": [],
        "address": "US, St. Louis Park, MN 55416",
        "phone": "",
        "tags": "Athletic Trainer or Coach, Fitness Instructor, Personal Trainer, Sports Conditioning Pro, Wellness/Lifestyle Coach, Yoga Instructor",
        "payment_methods": "Cash, Credit Cards, Personal Checks",
        "mail": "",
        "website": "http://www.andreaclaassen.com",
        "work_hours": "",
        "specifications": {
            "tab_1": {
                "tab_name": "Additional Information",
                "tab_content": {
                    "degrees": "BA, Psychology and Sports and Exercise Science, Hamline UniversityElementary Education, Hamline University",
                    "certifications / trainings": "ACE - Certified Group Fitness Instructor;ACE - Certified Personal Trainer;Yoga Alliance - E-RYT 200;IYCA - Certified Trainer",
                    "cpr certified": "American Red Cross Expires: Oct 17, 2019 American Red Cross Expires: Nov 17, 2017",
                    "aed certified": "American Red Cross Expires: Oct 17, 2019",
                    "liability insurance": "Lockton",
                    "years experience": "11-15",
                    "languages spoken": "English",
                    "gender": "Female"
                }
            }
        }
    },
    {
        "type": "yoga_teacher",
        "title": "luke brad",
        "category": "US>DL>New Delhi",
        "price": "",
        "description": "",
        "main_image": "",
        "other_images": [],
        "address": "US, New Delhi, DL",
        "phone": "",
        "tags": "Yoga Instructor",
        "payment_methods": "",
        "mail": "",
        "website": null,
        "work_hours": "",
        "specifications": {
            "tab_1": {
                "tab_name": "Additional Information",
                "tab_content": {
                    "certifications / trainings": "YogaWorks - YogaWorks Certification",
                    "gender": "Not Specified"
                }
            }
        }
    },
    {
        "type": "yoga_teacher",
        "title": "Allison Turner-Parker",
        "category": "US>>Douglas IM1 2",
        "price": "$50.00 / hr, Based on one-on-one / $15 per person for community",
        "description": "",
        "main_image": "",
        "other_images": [],
        "address": "US, Douglas IM1 2",
        "phone": "",
        "tags": "Yoga Instructor",
        "payment_methods": "Cash, Credit Cards",
        "mail": "",
        "website": null,
        "work_hours": "",
        "specifications": {
            "tab_1": {
                "tab_name": "Additional Information",
                "tab_content": {
                    "degrees": "AS, Physchology, Northwest Vista College",
                    "years experience": "1-2",
                    "gender": "Female"
                }
            }
        }
    },
    {
        "type": "yoga_teacher",
        "title": "MaLinda Ross",
        "category": "US>AL>Anniston",
        "price": "$13.00 / hr, classes are 1 to 1.25hrs",
        "description": "",
        "main_image": "https://cdn6.inspire360.com/files/image-sizer/5b98006d520dd1bd8bcdb1b4d93a2298-card-tall.jpg",
        "other_images": [],
        "address": "US, Anniston, AL 36201",
        "phone": "",
        "tags": "Yoga Instructor",
        "payment_methods": "",
        "mail": "",
        "website": "http://www.getevolutionfit.com",
        "work_hours": "",
        "specifications": {
            "tab_1": {
                "tab_name": "Additional Information",
                "tab_content": {
                    "yoga styles": "Core Strengthening, Hatha, Yin Yoga",
                    "yoga specialities": "Workshops",
                    "liability insurance": "Fitness & Wellness Insurance Agency",
                    "years experience": "3-4",
                    "gender": "Female"
                }
            }
        }
    },
    {
        "type": "yoga_teacher",
        "title": "Stacey Ziegler Berube",
        "category": "US>FL>Plantation",
        "price": "",
        "description": "",
        "main_image": "",
        "other_images": [],
        "address": "US, Plantation, FL 33325",
        "phone": "",
        "tags": "Pilates Instructor, Yoga Instructor",
        "payment_methods": "",
        "mail": "",
        "website": null,
        "work_hours": "",
        "specifications": {
            "tab_1": {
                "tab_name": "Additional Information",
                "tab_content": {
                    "gender": "Not Specified"
                }
            }
        }
    },
    {
        "type": "yoga_teacher",
        "title": "kelly olszyk",
        "category": "US>AL>Eufaula",
        "price": "",
        "description": "",
        "main_image": "",
        "other_images": [],
        "address": "US, Eufaula, AL 36027",
        "phone": "",
        "tags": "Fitness Instructor, Yoga Instructor",
        "payment_methods": "",
        "mail": "",
        "website": null,
        "work_hours": "",
        "specifications": {
            "tab_1": {
                "tab_name": "Additional Information",
                "tab_content": {
                    "gender": "Not Specified"
                }
            }
        }
    },
    {
        "type": "yoga_teacher",
        "title": "Chris Dotson",
        "category": "US>CA>San Diego",
        "price": "$0.00 / hr",
        "description": "",
        "main_image": "https://cdn2.inspire360.com/files/image-sizer/5690f421e60619c1b2a56df8b334fe03-card-tall.gif",
        "other_images": [],
        "address": "US, San Diego, CA 92126",
        "phone": "",
        "tags": "Wellness/Lifestyle Coach, Yoga Instructor",
        "payment_methods": "Cash",
        "mail": "",
        "website": "http:// ",
        "work_hours": "",
        "specifications": {
            "tab_1": {
                "tab_name": "Additional Information",
                "tab_content": {
                    "degrees": "BA, Accounting, Seton Hill University",
                    "cpr certified": "Amerian Heart Association Expires: May 23, 2021",
                    "liability insurance": "USAA",
                    "years experience": "5-6",
                    "languages spoken": "English",
                    "gender": "Male"
                }
            }
        }
    },
    {
        "type": "yoga_teacher",
        "title": "Marc D Thompson",
        "category": "US>FL>Delray Beach",
        "price": "$35.00 / hr, Fee ranges from $20-$90/session depending on package",
        "description": "<p>Marc D. Thompson is a prominent fitness trainer and personal coach with a background in medicine and exercise physiology. TRAINER TRAINING, teaching virtual technoiques--Interested in being a virtual trainer or instructor: go to http://www.virtufit.net/uploads/teachVPT.pdf. 2, 4 and 8 week programs.<br>He has devoted his life to understanding the body and its systems. His passion is finding and isolating the physical strengths and weaknesses of each client and matching them with a multitude of fitness disciplines to improve their physical, mental and psychological wellbeing. Approaching fitness holistically, Marc believes the fusion of creativity and practicality is essential in moving each individual toward their fitness goals. Along with over 25 years of experience, his greatest strength is his ability to draw from hundreds of exercises, fitness disciplines, sports psychology techniques and nutritional principals to empower each individual he trains. In his studio in Delray Beach, Florida, Marc works one-on-one with individuals and has broadened his reach to train a multitude of clients around the world with teleconferencing. Not only is he pioneering virtual training, Marc has designed numerous innovative fitness programs including Resistance Yoga, A-Team, X-Cycling, and Cardio Core. Marc carries an AFAA professional certification and has been a PT Faculty, a Senior Fitness Director and a YMCA Fitness Cluster Coordinator. He uses sports psychology, nutrition and motivation to enhance progress of his clientele and has been certified in Aquatic Teaching, PT Teaching, Cycling, Swimming, Yoga, Mat Science and Stability Ball. Marc also administered programs including Massage Therapy, Road races, Pilates, Tai Chi and Dance. Personally, Marc has trained for numerous duathalons, triathlons, half-marathons and plays golf, tennis, swimming, racquetball, volleyball, baseball, softball and many others. He works with individuals of all ages and experience levels, from novice to advanced athlete, as well as those who are mentally and physically handicapped. With clients, Marc incorporates muscular strength and endurance, flexibility, range of motion, balance, power, agility, quickness, speed, coordination and proprioception and so much more. Marc has taught a wide range of fitness classes including cycling, yoga, youth fitness, adventure camps, outdoor training, military training, and interval classes for corporations and at special and community events. Additional Certs: 0058-A Lupus Overview 0057-Package Deal 0055-Hypertension and Exercise 0056-AFAA's Nutrition Policy Statement 0054-Understanding Gait Function 0053-Back on the Ball 0052-Understanding Type 2 Diabetes Mellitus 0076-Pilates 0028-Water Tai Chi 0031-The Pilates Method for a Balanced Body 0066-Lifestyle Coaching 0032-Parkinson's Disease and Exercise </p>",
        "main_image": "https://cdn3.inspire360.com/files/image-sizer/19948249f1eaa32b343236e0d60dea7f-card-tall.jpg",
        "other_images": [],
        "address": "US, Delray Beach, FL 33444",
        "phone": "",
        "tags": "Athletic Trainer or Coach, Club or Studio Owner, Exercise Physiologist, Fitness Instructor, Personal Trainer, Program Director or Manager, Sports Conditioning Pro, Wellness/Lifestyle Coach, Yoga Instructor",
        "payment_methods": "Cash, Credit Cards",
        "mail": "",
        "facebook":"https://www.facebook.com/",
        "website": "http://www.marcdthompson.net/",
        "work_hours": "",
        "specifications": {
            "tab_1": {
                "tab_name": "Additional Information",
                "tab_content": {
                    "degrees": "BSc., Pre-Med, Moravian",
                    "certifications / trainings": "AFAA - Personal Fitness Trainer Certification;AFAA - Tele-Fitness;Spinning® - Certified Spinning Instructor (STAR 1);YMCA - Aquatic Instructor, WSI;YMCA - Personal Trainer;YMCA - Mat Science (Pilates);YMCA - Personal Trainer faculty",
                    "cpr certified": "American Red Cross",
                    "aed certified": "American Red Cross",
                    "liability insurance": "Fitness & Wellness Insurance Agency",
                    "book online": "http://www.marcqthompson.com",
                    "years experience": "16-20",
                    "languages spoken": "English, French",
                    "gender": "Male"
                }
            }
        }
    },
    {
        "type": "yoga_teacher",
        "title": "Evelyn Olaughlin",
        "category": "US>VA>Vienna",
        "price": "$0.00 / hr",
        "description": "",
        "main_image": "https://cdn2.inspire360.com/files/image-sizer/b24ddf0069445d318cbaa66573b9c678-card-tall.jpg",
        "other_images": [],
        "address": "US, Vienna, VA 22182",
        "phone": "",
        "tags": "Fitness Instructor, Personal Trainer, Pilates Instructor, Yoga Instructor",
        "payment_methods": "",
        "mail": "",
        "website": null,
        "work_hours": "",
        "specifications": {
            "tab_1": {
                "tab_name": "Additional Information",
                "tab_content": {
                    "degrees": "Bachelor's Degree",
                    "certifications / trainings": "TRX - TRX® Functional Training Course;TRX - TRX® Group Suspension Training® Course;TRX - TRX® Rip Training Course;TRX - TRXcGroupcSuspensioncTrainingcCourse;TRX - TRX Group Suspension Training Course;YogaFit Training Systems Worldwide, Inc. - Intensive;NCSF - Certified Personal Trainer Credential;Peak Pilates - PPS Comprehensive",
                    "cpr certified": "National Safety Council Expires: Dec 10, 2018",
                    "aed certified": "Nat'l Safey Council Expires: Dec 10, 2018",
                    "liability insurance": "Fitness & Wellness Insurance Agency",
                    "years experience": "7-8",
                    "languages spoken": "English, Filipino",
                    "gender": "Female"
                }
            }
        }
    },
    {
        "type": "yoga_teacher",
        "title": "Thomas Rock",
        "category": "US>WA>Edmonds",
        "price": "",
        "description": "",
        "main_image": "",
        "other_images": [],
        "address": "US, Edmonds, WA 98020",
        "phone": "",
        "tags": "Yoga Instructor",
        "payment_methods": "",
        "mail": "",
        "website": null,
        "work_hours": "",
        "specifications": {
            "tab_1": {
                "tab_name": "Additional Information",
                "tab_content": {
                    "gender": "Male"
                }
            }
        }
    },
    {
        "type": "yoga_teacher",
        "title": "Deborah Mangiamele",
        "category": "US>NY>Pittsford",
        "price": "",
        "description": "",
        "main_image": "https://cdn1.inspire360.com/files/image-sizer/33fd26d966ba19deeed30b401cdbd9e7-card-tall.jpg",
        "other_images": [],
        "address": "US, Pittsford, NY 14534",
        "phone": "",
        "tags": "Yoga Instructor",
        "payment_methods": "",
        "mail": "",
        "website": null,
        "work_hours": "",
        "specifications": {
            "tab_1": {
                "tab_name": "Additional Information",
                "tab_content": {
                    "cpr certified": "Americn Safety & Health Inst",
                    "gender": "Female"
                }
            }
        }
    },
    {
        "type": "yoga_teacher",
        "title": "Visudha De Los Santos",
        "category": "US>NM>Taos",
        "price": "",
        "description": "",
        "main_image": "",
        "other_images": [],
        "address": "US, Taos, NM 87571",
        "phone": "",
        "tags": "Fitness Instructor, Pilates Instructor, Yoga Instructor",
        "payment_methods": "",
        "mail": "",
        "website": null,
        "work_hours": "",
        "specifications": {
            "tab_1": {
                "tab_name": "Additional Information",
                "tab_content": {
                    "gender": "Not Specified"
                }
            }
        }
    },
    {
        "type": "yoga_teacher",
        "title": "Ray O'Kelly",
        "category": "US>MO>Kansas City",
        "price": "$70.00 / hr, Price Varies with # of sessions purchased. NOTE: No gym membership reqired, just package cost.",
        "description": "<p> Ray O’Kelly brings more than 12 years of experience to help clients understand why it is important to live a healthy lifestyle. His certifications include National Academy of Sports Medicine (NASM) in Personal Training, Corrective Exercise, Senior Specialist, and Weight Loss Specialists; World Instructor Training Schools (W.I.T.S.), and FiTour Training (cycling, nutrition, yoga). Ray also has extensive knowledge in bodybuilding. He has competed in several bodybuildling competitions and qualified for national bodybuilding competitions in 2013. Ray’s personal training service is as unique as your lifestyle: “It’s not about what you do, it’s how you do.” He believes in building on the progress of his clients, not pushing them to an unknown limit of capabilities. He has worked with male and female clients of all fitness levels as well as all age levels. He is very passionate about helping each of his clients and builds a daily relationship with them to keep them motivated. Please call rather than email, 816-550-2932 </p>",
        "main_image": "https://cdn5.inspire360.com/files/image-sizer/9153b1a1e03c4cbecdba3aa1c2658f24-card-tall.jpg",
        "other_images": [],
        "address": "US, Kansas City, MO 64114",
        "phone": "",
        "tags": "Athletic Trainer or Coach, Fitness Instructor, Personal Trainer, Sports Conditioning Pro, Wellness/Lifestyle Coach, Yoga Instructor",
        "payment_methods": "Cash, Cashier's Check, Credit Cards, Personal Checks",
        "mail": "",
        "website": "http://Www.superiorfitbody.us",
        "work_hours": "",
        "specifications": {
            "tab_1": {
                "tab_name": "Additional Information",
                "tab_content": {
                    "degrees": "PT, Florida, Thomas Edison State College",
                    "certifications / trainings": "NASM - Certified Personal Trainer (CPT);NASM - Weight Loss Specialist (WLS);NASM - Corrective Exercise Specialist (CES);NASM - Senior Fitness Specialist (SFS);NASM - Behavior Change Specialist (BCS)",
                    "cpr certified": "American Heart Association",
                    "aed certified": "American Health Assocation",
                    "liability insurance": "Berkshire Hathaway",
                    "book online": "https://clients.mindbodyonline.com/ASP/su1.asp?tg=&vt=&lvl=&stype=&view=&trn=0&page=&catid=&prodid=&date=12%2f9%2f2018&classid=0",
                    "years experience": "11-15",
                    "languages spoken": "English",
                    "gender": "Male"
                }
            }
        }
    },
    {
        "type": "yoga_teacher",
        "title": "Naoto Nakamura",
        "category": "US>>Tokyo 192-0072",
        "price": "$0.00 / hr",
        "description": "",
        "main_image": "https://cdn3.inspire360.com/files/image-sizer/c01bbf7e061931a30a5f9fc1fff784bc-card-tall.jpg",
        "other_images": [],
        "address": "US, Tokyo 192-0072",
        "phone": "",
        "tags": "Physical Therapist, Pilates Instructor, Yoga Instructor",
        "payment_methods": "Cash",
        "mail": "",
        "website": "http://www.takt8.com",
        "work_hours": "",
        "specifications": {
            "tab_1": {
                "tab_name": "Additional Information",
                "tab_content": {
                    "degrees": "PT",
                    "certifications / trainings": "Polestar - Pilates for Rehabilitation Series",
                    "cpr certified": "AHA",
                    "aed certified": "AHA",
                    "liability insurance": "Provided through my club/employer",
                    "years experience": "11-15",
                    "languages spoken": "Japanese",
                    "gender": "Male"
                }
            }
        }
    },
    {
        "type": "yoga_teacher",
        "title": "Zeenat Hasan",
        "category": "US>CA>San Diego",
        "price": "",
        "description": "",
        "main_image": "",
        "other_images": [],
        "address": "US, San Diego, CA 92129",
        "phone": "",
        "tags": "Pilates Instructor, Yoga Instructor",
        "payment_methods": "",
        "mail": "",
        "website": null,
        "work_hours": "",
        "specifications": {
            "tab_1": {
                "tab_name": "Additional Information",
                "tab_content": {
                    "gender": "Female"
                }
            }
        }
    },
    {
        "type": "yoga_teacher",
        "title": "Lori (Waters) Symanowicz",
        "category": "US>MA>Pittsfield",
        "price": "$11.00 / hr, Waters' Edge Fitness: Yoga Stretch class, Monday nights, 6-7pm & Pilates w/ Props Mat class Wednesday's, 6-7pm",
        "description": "",
        "main_image": "https://cdn2.inspire360.com/files/image-sizer/ec57a201ab34f1b663d45e898dbeadce-card-tall.jpg",
        "other_images": [],
        "address": "US, Pittsfield, MA 01201",
        "phone": "",
        "tags": "Club or Studio Owner, Fitness Instructor, Personal Trainer, Pilates Instructor, Yoga Instructor",
        "payment_methods": "Cash, Personal Checks",
        "mail": "",
        "website": null,
        "work_hours": "",
        "specifications": {
            "tab_1": {
                "tab_name": "Additional Information",
                "tab_content": {
                    "certifications / trainings": "AFAA - Primary Group Exercise Certification;NASM - Certified Personal Trainer (CPT);Merrithew™ - IM or CMR - Matwork L1;TRX - TRX Suspension Training Course;TRX - TRX® Rip Training Course;TRX - TRX® Suspension Training® Course;PMA - PMA Certified Pilates Teacher;ViPR - ViPR Certified Trainer;Polestar - Pilates Studio Series;Beaming - Experience Specialist;Indo Row - Indo Row Training;Yoga Alliance - Yoga Instructor, 200 Hours",
                    "cpr certified": "Amerian Heart Association Expires: Apr 06, 2018",
                    "aed certified": "American Heart Association Heart Saver AED Expires: Apr 06, 2018",
                    "liability insurance": "Fitness & Wellness Insurance Agency",
                    "book online": "http://Pilates Fit, LLC",
                    "years experience": "21-25",
                    "languages spoken": "English",
                    "gender": "Female"
                }
            }
        }
    },
    {
        "type": "yoga_teacher",
        "title": "Nichole Sargent",
        "category": "US>WA>Edmonds",
        "price": "$60.00 / hr, Personal Training Rate Individual Session, Other rates avail for other services offered.",
        "description": "<p> Teaching fitness classes began as a hobby in 1998, but quickly became a passion for this active mom of two boys. I've taught a variety of class formats in my 14+ years leading group exercise classes; my favorite formats include ZUMBA®, Red Hot Dance Fitness, BootyBarre, BootyBarre Flex/Flow, strength conditioning, indoor cycling, fitness yoga, &amp; bootcamp. I enjoy the diversity of teaching different formats &amp; populations in both group fitness &amp; personal training sessions.<br> I'm an avid runner with a special interest in full marathons &amp; can often be seen hitting local roads &amp; trails for an early morning run. I enjoy an energetic lifestyle which includes travel, dancing, strength training, skiing, boating, mountain biking and hiking. My favorite leisure activity is family time with my husband and sons. Active in my community through volunteerism, I aim to help individuals &amp; families create healthy lifetime habits which result in better health &amp; an improved quality of life.</p><p>The community I build within my classes/sessions is not typically experienced in 'traditional gym classes' - this is my passion! It's truly rewarding to train clients &amp; see them progress to their highest potential – whether that’s feeling successful in fitness classes, improving functional range of motion, training for an event, successful weight loss/health maintenance, or just making a healthy lifestyle change. I'm a firm believer that exercise can be FUN! Try a class or session with me - you'll leave feeling refreshed, renewed, and happy! <br>Nichole's favorite workout mantra: \"Better Health, Better Life!\" </p>",
        "main_image": "https://cdn3.inspire360.com/files/image-sizer/a36ef7312ea440a477a8df70bc8f97f4-card-tall.jpg",
        "other_images": [],
        "address": "US, Edmonds, WA 98026-5137",
        "phone": "",
        "tags": "Fitness Instructor, Personal Trainer, Yoga Instructor",
        "payment_methods": "Cash, Cashier's Check, Credit Cards, Personal Checks",
        "mail": "",
        "website": "https://www.facebook.com/#!/NorthshoreFitnessLLC.NicholeSargent",
        "work_hours": "",
        "specifications": {
            "tab_1": {
                "tab_name": "Additional Information",
                "tab_content": {
                    "degrees": "Bachelor's Degree, Sociology, University of Washington",
                    "certifications / trainings": "ACE - Certified Group Fitness Instructor;ACE - Certified Personal Trainer;BOSU - BOSU Complete (8hr Instructor Training);TRX - TRX Rip Training Course;YogaFit Training Systems Worldwide, Inc. - YogaFit Prenatal;YogaFit Training Systems Worldwide, Inc. - Level One: Foundations;Booty Barre® - The Booty Barre® Primary Instructor Training Course;Zumba® - Zumba® Basic 1;RHDF - Red Hot Dance Fitness Instructor Training and Certification;YMCA - Prenatal Fitness;YMCA - Strength & Conditioning;YMCA - Y Personal Fitness Coaching",
                    "cpr certified": "American Red Cross Expires: Mar 01, 2019",
                    "aed certified": "American Red Cross Expires: Mar 01, 2019",
                    "liability insurance": "Nationwide Mutual Insurance Co.",
                    "years experience": "11-15",
                    "languages spoken": "English",
                    "gender": "Female"
                }
            }
        }
    },
    {
        "type": "yoga_teacher",
        "title": "Eve Gordon",
        "category": "US>PA>Philadelphia",
        "price": "$0.00 / hr, Offering a variety of packages with varied prices",
        "description": "<p> </p>",
        "main_image": "https://cdn1.inspire360.com/files/image-sizer/cc527c4946b540bac299264f53ba3d4a-card-tall.jpeg",
        "other_images": [],
        "address": "US, Philadelphia, PA 19103",
        "phone": "",
        "tags": "Personal Trainer, Yoga Instructor",
        "payment_methods": "Cash, Personal Checks",
        "mail": "",
        "website": null,
        "work_hours": "",
        "specifications": {
            "tab_1": {
                "tab_name": "Additional Information",
                "tab_content": {
                    "degrees": "BS, Health/ Physical Ed, Temple university",
                    "certifications / trainings": "ACSM - ACSM Certified Personal Trainer",
                    "cpr certified": "American Red Cross Expires: Nov 02, 2020",
                    "liability insurance": "Fitness & Wellness Insurance Agency",
                    "years experience": "16-20",
                    "gender": "Female"
                }
            }
        }
    },
    {
        "type": "yoga_teacher",
        "title": "Jayne Robertson",
        "category": "US>CA>Rancho Mirage",
        "price": "$110.00 / hr, Yoga Therapy sessions 5 x $500",
        "description": "<p>What began as a personal training business (Fitness &amp; Beyond) has morphed into offering a mind-body-spirit approach to optimizing health, connection and balance. In September 2013, I took on the role of the Mind-Body Program Manager for the Eisenhower Wellness Institute and started Desert Yoga Teacher Training. I am opening up a new yoga studio in Rancho Mirage, CA which will be offering 1-1 yoga therapy, semi-private yoga classes, workshops and retreats in California &amp; Australia. The philosophy which is shared with all clients and classes are based in the traditions of yoga. Tools for obtaining optimal wellness through our own doing, awareness and continued growth.</p>",
        "main_image": "https://cdn6.inspire360.com/files/image-sizer/c89f35f0b8eee4e1432dbce450df99be-card-tall.jpg",
        "other_images": [],
        "address": "US, Rancho Mirage, CA 92270",
        "phone": "",
        "tags": "Club or Studio Owner, Fitness Instructor, Program Director or Manager, Yoga Instructor",
        "payment_methods": "Cash, Cashier's Check, Personal Checks",
        "mail": "",
        "website": "http://www.desertyogatherapy.com",
        "work_hours": "",
        "specifications": {
            "tab_1": {
                "tab_name": "Additional Information",
                "tab_content": {
                    "degrees": "Graduate Dip Ex/Sports Science",
                    "certifications / trainings": "Unknown Agency -;Pro CPR -;Yoga Alliance - 500 hr RYT - Yoga Instructor",
                    "liability insurance": "Fitness & Wellness Insurance Agency",
                    "book online": "http://",
                    "years experience": "31+",
                    "languages spoken": "English",
                    "gender": "Female"
                }
            }
        }
    }
]